%YAML 1.1
%TAG !u! tag:unity3d.com,2011:
--- !u!74 &7400000
AnimationClip:
  m_ObjectHideFlags: 0
  m_PrefabParentObject: {fileID: 0}
  m_PrefabInternal: {fileID: 0}
  m_Name: TV Animation
  serializedVersion: 6
  m_Legacy: 0
  m_Compressed: 0
  m_UseHighQualityCurve: 1
  m_RotationCurves: []
  m_CompressedRotationCurves: []
  m_EulerCurves: []
  m_PositionCurves: []
  m_ScaleCurves: []
  m_FloatCurves: []
  m_PPtrCurves:
  - curve:
    - time: 0
      value: {fileID: 21300000, guid: 48368ab176506304db463d524726d86e, type: 3}
    - time: 0.041666668
      value: {fileID: 21300000, guid: 3ddfb1918c316894ca235c603bda75a3, type: 3}
    - time: 0.083333336
      value: {fileID: 21300000, guid: 541e4fe064a618346a8101bc334a19c9, type: 3}
    - time: 0.125
      value: {fileID: 21300000, guid: fd521d8ac7aef6c4e8e174b137db2dbd, type: 3}
    - time: 0.16666667
      value: {fileID: 21300000, guid: 7dab14ae223121043ba273ebc20fa82d, type: 3}
    - time: 0.20833333
      value: {fileID: 21300000, guid: 2532ec93ce4ea6e41b388df8b58895bb, type: 3}
    - time: 0.25
      value: {fileID: 21300000, guid: e95e070c7d7570f408904ad47a7694f9, type: 3}
    - time: 0.29166666
      value: {fileID: 21300000, guid: fdda99e93b4d48e4bb9e7d924c08a4f6, type: 3}
    - time: 0.33333334
      value: {fileID: 21300000, guid: 10e85545e152ef948be8c2ce75c5a855, type: 3}
    - time: 0.375
      value: {fileID: 21300000, guid: 125a18b88c2f885419761f0c5e1aed55, type: 3}
    - time: 0.41666666
      value: {fileID: 21300000, guid: 2d583cbb14f978c4eae6836460cd65a7, type: 3}
    - time: 0.45833334
      value: {fileID: 21300000, guid: cd6ab17e972872c44850a68a97490c3a, type: 3}
    - time: 0.5
      value: {fileID: 21300000, guid: c444c05d4d3342748845a567f418446a, type: 3}
    - time: 0.5416667
      value: {fileID: 21300000, guid: ff3273279dd71444ca31933b9156256f, type: 3}
    - time: 0.5833333
      value: {fileID: 21300000, guid: d9ff2e24ab4b25c4faf988a916b23c82, type: 3}
    - time: 0.625
      value: {fileID: 21300000, guid: 23a54babfef0c7e40b7d504065cb56f4, type: 3}
    - time: 0.6666667
      value: {fileID: 21300000, guid: a90d7a46c99db794a975bf6d0dc2b87a, type: 3}
    - time: 0.7083333
      value: {fileID: 21300000, guid: d50a53425bf9c074c85201b2d127e52d, type: 3}
    - time: 0.75
      value: {fileID: 21300000, guid: 1f4218631a5929649a8864ce0fb3b3a3, type: 3}
    - time: 0.7916667
      value: {fileID: 21300000, guid: 2bb976ab778682f44bb0ecce8ad87b8d, type: 3}
    - time: 0.8333333
      value: {fileID: 21300000, guid: 793bf28449846264da7503c477045eef, type: 3}
    - time: 0.875
      value: {fileID: 21300000, guid: fa8801b9a89b6ef43896d9aa18c482a9, type: 3}
    - time: 0.9166667
      value: {fileID: 21300000, guid: 38902cfe7896cee49b880a424189e888, type: 3}
    - time: 0.9583333
      value: {fileID: 21300000, guid: b2e909561c305c643a3d711680410ba3, type: 3}
    - time: 1
      value: {fileID: 21300000, guid: 05c68baa378b0b0408046ea947962e00, type: 3}
    - time: 1.0416666
      value: {fileID: 21300000, guid: 66a271b7d1acf27408a380281d6f6ee0, type: 3}
    - time: 1.0833334
      value: {fileID: 21300000, guid: c2ebb4fb2e479eb44832f942dd4d3299, type: 3}
    - time: 1.125
      value: {fileID: 21300000, guid: c6c325ef152c1fa4aa4c7a4c55360640, type: 3}
    - time: 1.1666666
      value: {fileID: 21300000, guid: 0ed381207456b9c49b0a52aa7f66586f, type: 3}
    - time: 1.2083334
      value: {fileID: 21300000, guid: 87c38b64e94e6b446b3e931b811ddf55, type: 3}
    - time: 1.25
      value: {fileID: 21300000, guid: 379bad171d1bfad419a958a829334592, type: 3}
    - time: 1.2916666
      value: {fileID: 21300000, guid: ba4afa73b14838d43b44cdaf8ef02d7c, type: 3}
    - time: 1.3333334
      value: {fileID: 21300000, guid: 370c35be22fd1f544b4ffd1b92a3bdb6, type: 3}
    - time: 1.375
      value: {fileID: 21300000, guid: a65a48719fc287d4f81b61aec780eb09, type: 3}
    - time: 1.4166666
      value: {fileID: 21300000, guid: 8d4b27bcd85c53f4684418dbd5721ed2, type: 3}
    - time: 1.4583334
      value: {fileID: 21300000, guid: 2ffc4048a56e9154aa6a11490572b168, type: 3}
    - time: 1.5
      value: {fileID: 21300000, guid: 36eba84b75f4b6e438f08089c3bb013a, type: 3}
    - time: 1.5416666
      value: {fileID: 21300000, guid: eb4e97cd2de54f147b7bedb176b10e53, type: 3}
    - time: 1.5833334
      value: {fileID: 21300000, guid: 9accc42f3fa6b25458d85dc588f3cfd6, type: 3}
    - time: 1.625
      value: {fileID: 21300000, guid: cc155b6b56acc1c4bbcb5af2b5967290, type: 3}
    - time: 1.6666666
      value: {fileID: 21300000, guid: 85877ae0b11aefb4d8eb35d04621c48c, type: 3}
    - time: 1.7083334
      value: {fileID: 21300000, guid: 2f53db1e6ed8e4d4d9f905221ce54878, type: 3}
    - time: 1.75
      value: {fileID: 21300000, guid: ab1d40016ff25e74c9e30e508259309e, type: 3}
    - time: 1.7916666
      value: {fileID: 21300000, guid: 53379f879652513419f8aaebd7f483ce, type: 3}
    - time: 1.8333334
      value: {fileID: 21300000, guid: d8d1c2e1302b9ab4384842e987be4e08, type: 3}
    - time: 1.875
      value: {fileID: 21300000, guid: d5bbc7d728087d9448485f986af512b4, type: 3}
    - time: 1.9166666
      value: {fileID: 21300000, guid: d2eb01474d516dc4f8dc8ffbef7375d2, type: 3}
    - time: 1.9583334
      value: {fileID: 21300000, guid: cda13298d8a6fe641b289481acd53a70, type: 3}
    - time: 2
      value: {fileID: 21300000, guid: 4e20d0a0f514df4408972599c7fa23fb, type: 3}
    - time: 2.0416667
      value: {fileID: 21300000, guid: df970886cc05bce4c996a6e3b20c157e, type: 3}
    - time: 2.0833333
      value: {fileID: 21300000, guid: c8ee407d8cc162046827ccd79337bee6, type: 3}
    - time: 2.125
      value: {fileID: 21300000, guid: 5d456eec24cd3744b8359eb95b88f0e4, type: 3}
    - time: 2.1666667
      value: {fileID: 21300000, guid: 9612d87cf3d18a14c9215bed1069c883, type: 3}
    - time: 2.2083333
      value: {fileID: 21300000, guid: d7c4f74dd7075ca439df73fcb8a2dd7a, type: 3}
    - time: 2.25
      value: {fileID: 21300000, guid: f44b8bbe7942403479b01e18784bdd10, type: 3}
    - time: 2.2916667
      value: {fileID: 21300000, guid: 584e06d1b682ecd43adf84ba5489b8a8, type: 3}
    - time: 2.3333333
      value: {fileID: 21300000, guid: 8d5a99846da8cf547aadc8fc9fab3e67, type: 3}
    - time: 2.375
      value: {fileID: 21300000, guid: a8e05b1e06e24e643aff92cb600ed5a6, type: 3}
    - time: 2.4166667
      value: {fileID: 21300000, guid: 2515ec4a802e5174ca900753bf8959b8, type: 3}
    - time: 2.4583333
      value: {fileID: 21300000, guid: 2c6e9e628e1c34d4db992079344147fa, type: 3}
    attribute: m_Sprite
    path: 
    classID: 212
    script: {fileID: 0}
  m_SampleRate: 24
  m_WrapMode: 0
  m_Bounds:
    m_Center: {x: 0, y: 0, z: 0}
    m_Extent: {x: 0, y: 0, z: 0}
  m_ClipBindingConstant:
    genericBindings:
    - serializedVersion: 2
      path: 0
      attribute: 0
      script: {fileID: 0}
      typeID: 212
      customType: 23
      isPPtrCurve: 1
    pptrCurveMapping:
    - {fileID: 21300000, guid: 48368ab176506304db463d524726d86e, type: 3}
    - {fileID: 21300000, guid: 3ddfb1918c316894ca235c603bda75a3, type: 3}
    - {fileID: 21300000, guid: 541e4fe064a618346a8101bc334a19c9, type: 3}
    - {fileID: 21300000, guid: fd521d8ac7aef6c4e8e174b137db2dbd, type: 3}
    - {fileID: 21300000, guid: 7dab14ae223121043ba273ebc20fa82d, type: 3}
    - {fileID: 21300000, guid: 2532ec93ce4ea6e41b388df8b58895bb, type: 3}
    - {fileID: 21300000, guid: e95e070c7d7570f408904ad47a7694f9, type: 3}
    - {fileID: 21300000, guid: fdda99e93b4d48e4bb9e7d924c08a4f6, type: 3}
    - {fileID: 21300000, guid: 10e85545e152ef948be8c2ce75c5a855, type: 3}
    - {fileID: 21300000, guid: 125a18b88c2f885419761f0c5e1aed55, type: 3}
    - {fileID: 21300000, guid: 2d583cbb14f978c4eae6836460cd65a7, type: 3}
    - {fileID: 21300000, guid: cd6ab17e972872c44850a68a97490c3a, type: 3}
    - {fileID: 21300000, guid: c444c05d4d3342748845a567f418446a, type: 3}
    - {fileID: 21300000, guid: ff3273279dd71444ca31933b9156256f, type: 3}
    - {fileID: 21300000, guid: d9ff2e24ab4b25c4faf988a916b23c82, type: 3}
    - {fileID: 21300000, guid: 23a54babfef0c7e40b7d504065cb56f4, type: 3}
    - {fileID: 21300000, guid: a90d7a46c99db794a975bf6d0dc2b87a, type: 3}
    - {fileID: 21300000, guid: d50a53425bf9c074c85201b2d127e52d, type: 3}
    - {fileID: 21300000, guid: 1f4218631a5929649a8864ce0fb3b3a3, type: 3}
    - {fileID: 21300000, guid: 2bb976ab778682f44bb0ecce8ad87b8d, type: 3}
    - {fileID: 21300000, guid: 793bf28449846264da7503c477045eef, type: 3}
    - {fileID: 21300000, guid: fa8801b9a89b6ef43896d9aa18c482a9, type: 3}
    - {fileID: 21300000, guid: 38902cfe7896cee49b880a424189e888, type: 3}
    - {fileID: 21300000, guid: b2e909561c305c643a3d711680410ba3, type: 3}
    - {fileID: 21300000, guid: 05c68baa378b0b0408046ea947962e00, type: 3}
    - {fileID: 21300000, guid: 66a271b7d1acf27408a380281d6f6ee0, type: 3}
    - {fileID: 21300000, guid: c2ebb4fb2e479eb44832f942dd4d3299, type: 3}
    - {fileID: 21300000, guid: c6c325ef152c1fa4aa4c7a4c55360640, type: 3}
    - {fileID: 21300000, guid: 0ed381207456b9c49b0a52aa7f66586f, type: 3}
    - {fileID: 21300000, guid: 87c38b64e94e6b446b3e931b811ddf55, type: 3}
    - {fileID: 21300000, guid: 379bad171d1bfad419a958a829334592, type: 3}
    - {fileID: 21300000, guid: ba4afa73b14838d43b44cdaf8ef02d7c, type: 3}
    - {fileID: 21300000, guid: 370c35be22fd1f544b4ffd1b92a3bdb6, type: 3}
    - {fileID: 21300000, guid: a65a48719fc287d4f81b61aec780eb09, type: 3}
    - {fileID: 21300000, guid: 8d4b27bcd85c53f4684418dbd5721ed2, type: 3}
    - {fileID: 21300000, guid: 2ffc4048a56e9154aa6a11490572b168, type: 3}
    - {fileID: 21300000, guid: 36eba84b75f4b6e438f08089c3bb013a, type: 3}
    - {fileID: 21300000, guid: eb4e97cd2de54f147b7bedb176b10e53, type: 3}
    - {fileID: 21300000, guid: 9accc42f3fa6b25458d85dc588f3cfd6, type: 3}
    - {fileID: 21300000, guid: cc155b6b56acc1c4bbcb5af2b5967290, type: 3}
    - {fileID: 21300000, guid: 85877ae0b11aefb4d8eb35d04621c48c, type: 3}
    - {fileID: 21300000, guid: 2f53db1e6ed8e4d4d9f905221ce54878, type: 3}
    - {fileID: 21300000, guid: ab1d40016ff25e74c9e30e508259309e, type: 3}
    - {fileID: 21300000, guid: 53379f879652513419f8aaebd7f483ce, type: 3}
    - {fileID: 21300000, guid: d8d1c2e1302b9ab4384842e987be4e08, type: 3}
    - {fileID: 21300000, guid: d5bbc7d728087d9448485f986af512b4, type: 3}
    - {fileID: 21300000, guid: d2eb01474d516dc4f8dc8ffbef7375d2, type: 3}
    - {fileID: 21300000, guid: cda13298d8a6fe641b289481acd53a70, type: 3}
    - {fileID: 21300000, guid: 4e20d0a0f514df4408972599c7fa23fb, type: 3}
    - {fileID: 21300000, guid: df970886cc05bce4c996a6e3b20c157e, type: 3}
    - {fileID: 21300000, guid: c8ee407d8cc162046827ccd79337bee6, type: 3}
    - {fileID: 21300000, guid: 5d456eec24cd3744b8359eb95b88f0e4, type: 3}
    - {fileID: 21300000, guid: 9612d87cf3d18a14c9215bed1069c883, type: 3}
    - {fileID: 21300000, guid: d7c4f74dd7075ca439df73fcb8a2dd7a, type: 3}
    - {fileID: 21300000, guid: f44b8bbe7942403479b01e18784bdd10, type: 3}
    - {fileID: 21300000, guid: 584e06d1b682ecd43adf84ba5489b8a8, type: 3}
    - {fileID: 21300000, guid: 8d5a99846da8cf547aadc8fc9fab3e67, type: 3}
    - {fileID: 21300000, guid: a8e05b1e06e24e643aff92cb600ed5a6, type: 3}
    - {fileID: 21300000, guid: 2515ec4a802e5174ca900753bf8959b8, type: 3}
    - {fileID: 21300000, guid: 2c6e9e628e1c34d4db992079344147fa, type: 3}
  m_AnimationClipSettings:
    serializedVersion: 2
    m_AdditiveReferencePoseClip: {fileID: 0}
    m_AdditiveReferencePoseTime: 0
    m_StartTime: 0
    m_StopTime: 2.5
    m_OrientationOffsetY: 0
    m_Level: 0
    m_CycleOffset: 0
    m_HasAdditiveReferencePose: 0
    m_LoopTime: 1
    m_LoopBlend: 0
    m_LoopBlendOrientation: 0
    m_LoopBlendPositionY: 0
    m_LoopBlendPositionXZ: 0
    m_KeepOriginalOrientation: 0
    m_KeepOriginalPositionY: 1
    m_KeepOriginalPositionXZ: 0
    m_HeightFromFeet: 0
    m_Mirror: 0
  m_EditorCurves: []
  m_EulerEditorCurves: []
  m_HasGenericRootTransform: 0
  m_HasMotionFloatCurves: 0
  m_GenerateMotionCurves: 0
  m_Events: []
